Predicting Beautiful Sunsets
…
# making the recipe (work in progress...)
sunset_recipe <- recipe(Good.Sunset ~ ., data=sunset_train) %>%
  step_rm(Date, State.Name, datetime, sunset, conditions, icon) %>%
  #step_impute_linear(uvindex, impute_with = imp_vars(all_predictors())) %>%
  step_dummy(all_nominal_predictors())
sunset_recipe %>% prep() %>% juice()

## # A tibble: 402 x 40
##    month  year Raw.Num~1 Resid~2 Latit~3 Longi~4 CO..i~5 NO2..~6 SO2..~7 Ozone~8
##    <dbl> <dbl>     <int>   <dbl>   <dbl>   <dbl>   <dbl>   <dbl>   <dbl>   <dbl>
##  1    11  2015       697   0.645    34.1   -118.     0.9    40       0.3   0.034
##  2    12  2015       893   1.09     34.1   -118.     1.4    50.3     0.7   0.018
##  3    12  2015       548   0.370    34.1   -118.     2.1    75       2.1   0.007
##  4    12  2015       558   0.387    34.1   -118.     1.2    44.6     0.8   0.03 
##  5     1  2016       944   1.15     34.1   -118.     1.2    35.7     0.6   0.037
##  6     1  2016       936   1.15     34.1   -118.     1.6    44.1     0.7   0.027
##  7     1  2016       818   0.960    34.1   -118.     0.7    38.9     0.1   0.017
##  8     1  2016      1052   1.39     34.1   -118.     1.2    42       0.5   0.021
##  9     1  2016       756   0.767    34.1   -118.     1.3    48.7     0.8   0.018
## 10     1  2016       725   0.605    34.1   -118.     1.7    55.6     2     0.015
## # ... with 392 more rows, 30 more variables: AQI <int>, tempmax <dbl>,
## #   tempmin <dbl>, temp <dbl>, feelslikemax <dbl>, feelslikemin <dbl>,
## #   feelslike <dbl>, dew <dbl>, humidity <dbl>, precip <dbl>, precipprob <int>,
## #   precipcover <dbl>, snow <int>, snowdepth <int>, windgust <dbl>,
## #   windspeed <dbl>, winddir <dbl>, sealevelpressure <dbl>, cloudcover <dbl>,
## #   visibility <dbl>, solarradiation <dbl>, solarenergy <dbl>, uvindex <int>,
## #   moonphase <dbl>, Good.Sunset <fct>, City_San_Diego <dbl>, ...

Sunset_recipe <- recipe(Good.Sunset ~ ., data=sunset_train) %>%
  step_rm(Date, State.Name, datetime, sunset, conditions, icon) %>%
  #step_impute_linear(SO2..in.parts.per.billion., impute_with = imp_vars(all_predictors())) %>%
  step_dummy(all_nominal_predictors())
Sunset_recipe %>% prep() %>% juice()

## # A tibble: 402 x 40
##    month  year Raw.Num~1 Resid~2 Latit~3 Longi~4 CO..i~5 NO2..~6 SO2..~7 Ozone~8
##    <dbl> <dbl>     <int>   <dbl>   <dbl>   <dbl>   <dbl>   <dbl>   <dbl>   <dbl>
##  1    11  2015       697   0.645    34.1   -118.     0.9    40       0.3   0.034
##  2    12  2015       893   1.09     34.1   -118.     1.4    50.3     0.7   0.018
##  3    12  2015       548   0.370    34.1   -118.     2.1    75       2.1   0.007
##  4    12  2015       558   0.387    34.1   -118.     1.2    44.6     0.8   0.03 
##  5     1  2016       944   1.15     34.1   -118.     1.2    35.7     0.6   0.037
##  6     1  2016       936   1.15     34.1   -118.     1.6    44.1     0.7   0.027
##  7     1  2016       818   0.960    34.1   -118.     0.7    38.9     0.1   0.017
##  8     1  2016      1052   1.39     34.1   -118.     1.2    42       0.5   0.021
##  9     1  2016       756   0.767    34.1   -118.     1.3    48.7     0.8   0.018
## 10     1  2016       725   0.605    34.1   -118.     1.7    55.6     2     0.015
## # ... with 392 more rows, 30 more variables: AQI <int>, tempmax <dbl>,
## #   tempmin <dbl>, temp <dbl>, feelslikemax <dbl>, feelslikemin <dbl>,
## #   feelslike <dbl>, dew <dbl>, humidity <dbl>, precip <dbl>, precipprob <int>,
## #   precipcover <dbl>, snow <int>, snowdepth <int>, windgust <dbl>,
## #   windspeed <dbl>, winddir <dbl>, sealevelpressure <dbl>, cloudcover <dbl>,
## #   visibility <dbl>, solarradiation <dbl>, solarenergy <dbl>, uvindex <int>,
## #   moonphase <dbl>, Good.Sunset <fct>, City_San_Diego <dbl>, ...
…
log_wkflow <- workflow() %>% 
  add_model(log_reg) %>% 
  add_recipe(sunset_recipe)

log_fit <- fit(log_wkflow, sunset_train)

## Warning: glm.fit: algorithm did not converge

## Warning: glm.fit: fitted probabilities numerically 0 or 1 occurred

log_fit %>% 
  tidy()

## # A tibble: 40 x 5
##    term                                 estimate   std.error   statistic p.value
##    <chr>                                   <dbl>       <dbl>       <dbl>   <dbl>
##  1 (Intercept)                         88040.    9628863622.  0.00000914    1.00
##  2 month                                  -0.835     471365. -0.00000177    1.00
##  3 year                                  -44.5      4758899. -0.00000935    1.00
##  4 Raw.Number.of.Posts                     0.197       4005.  0.0000491     1.00
##  5 Residual.After.Controlling.for.Time   -34.5      1822119. -0.0000189     1.00
##  6 Latitude                               NA             NA  NA            NA   
##  7 Longitude                              NA             NA  NA            NA   
##  8 CO..in.parts.per.million.             -26.3      1633590. -0.0000161     1.00
##  9 NO2..in.parts.per.billion.              5.72      679304.  0.00000843    1.00
## 10 SO2..in.parts.per.billion.             -0.529      68835. -0.00000769    1.00
## # ... with 30 more rows
…
